<?xml version="1.0" encoding="UTF-8" standalone="no"?>
<svg
   height="512pt"
   viewBox="0 -97 512 512"
   width="512pt"
   version="1.1"
   id="svg55"
   sodipodi:docname="hot.svg"
   inkscape:version="1.1 (c68e22c387, 2021-05-23)"
   xmlns:inkscape="http://www.inkscape.org/namespaces/inkscape"
   xmlns:sodipodi="http://sodipodi.sourceforge.net/DTD/sodipodi-0.dtd"
   xmlns="http://www.w3.org/2000/svg"
   xmlns:svg="http://www.w3.org/2000/svg">
  <defs
     id="defs59" />
  <sodipodi:namedview
     id="namedview57"
     pagecolor="#ffffff"
     bordercolor="#999999"
     borderopacity="1"
     inkscape:pageshadow="0"
     inkscape:pageopacity="0"
     inkscape:pagecheckerboard="0"
     inkscape:document-units="pt"
     showgrid="false"
     inkscape:zoom="1.0957031"
     inkscape:cx="340.87701"
     inkscape:cy="416.17112"
     inkscape:window-width="1920"
     inkscape:window-height="986"
     inkscape:window-x="-11"
     inkscape:window-y="-11"
     inkscape:window-maximized="1"
     inkscape:current-layer="svg55" />
  <path
     d="m256 0c-141.320312 0-256 114.574219-256 256v31.03125c0 17.136719 13.890625 31.03125 31.03125 31.03125h449.9375c17.140625 0 31.03125-13.894531 31.03125-31.03125v-31.03125c0-141.417969-114.671875-256-256-256zm0 0"
     fill="#8b9ba9"
     id="path35" />
  <path
     d="m31.03125 318.0625h449.9375c17.140625 0 31.03125-13.894531 31.03125-31.03125v-31.03125c0-94.757812-51.492188-177.464844-127.984375-221.726562l-.160156.273437c-8.328125 14.425781-4.488281 32.679687 8.734375 42.8125 53.691406 41.152344 88.378906 105.917969 88.378906 178.640625v7.757812c0 12.851563-10.417969 23.273438-23.273438 23.273438h-457.695312c0 17.136719 13.894531 31.03125 31.03125 31.03125zm0 0"
     fill="#6c7a88"
     id="path37" />
  <path
     d="m356.824219 81.367188-100.824219 174.632812h201.695312c0-74.511719-40.617187-139.710938-100.871093-174.632812zm0 0"
     fill="#ff5368"
     id="path39" />
  <path
     d="m376.285156 94.203125c-8.597656 14.890625-6.546875 33.679687 5.152344 46.28125.273438.296875.542969.589844.804688.878906 13.804687 15.234375 24.757812 32.824219 32.339843 51.847657 6.066407 15.226562-5.28125 31.761718-21.671875 31.761718-23.761718 0-94.203125 0-118.996094 0l-17.914062 31.027344h201.699219c-.003907-66.171875-32.039063-125-81.414063-161.796875zm0 0"
     fill="#e93d52"
     id="path41" />
  <path
     d="m155.175781 81.367188 100.824219 174.632812 100.824219-174.632812c-29.679688-17.203126-64.121094-27.0625-100.824219-27.0625s-71.144531 9.859374-100.824219 27.0625zm0 0"
     fill="#ffcf5d"
     id="path43" />
  <path
     d="m238.085938 224.96875 17.914062 31.03125 100.824219-174.632812c-8.9375-5.183594-18.320313-9.683594-28.054688-13.464844zm0 0"
     fill="#ffb545"
     id="path45" />
  <path
     d="m256 256 100.824219-174.632812"
     fill="#ffb545"
     id="path47" />
  <path
     d="m155.175781 81.367188c-60.253906 34.921874-100.871093 100.121093-100.871093 174.632812h201.695312zm0 0"
     fill="#a4d541"
     id="path49" />
  <path
     d="m155.175781 81.367188c-9.015625 5.222656-17.585937 11.128906-25.648437 17.636718l52.570312 91.058594c8.960938 15.511719-2.238281 34.90625-20.152344 34.90625h-105.257812c-1.570312 10.117188-2.382812 20.480469-2.382812 31.03125h201.695312zm0 0"
     fill="#81b524"
     id="path51" />
  <path
     d="m 257.35937,220.83203 c 6.04297,-0.19922 11.71094,1.33984 16.55469,4.14063 l 111.09766,-64.14063 c 7.41797,-4.28516 16.90625,-1.74219 21.1914,5.67969 4.28516,7.41797 1.74219,16.90625 -5.67968,21.1914 l -111.08985,64.14063 c 0,17.13672 -13.89453,31.03125 -31.03125,31.03125 -17.78515,0 -32.07422,-14.96094 -30.96875,-32.98438 0.96485,-15.82031 14.08594,-28.53906 29.92578,-29.05859 z m 0,0"
     fill="#35404a"
     id="path53" />
</svg>
